﻿{"frames": {

"AIRSHIP_sprite0000":
{
	"frame": {"x":0,"y":0,"w":529,"h":460},
	"rotated": false,
	"trimmed": true,
	"spriteSourceSize": {"x":0,"y":4,"w":529,"h":464},
	"sourceSize": {"w":529,"h":464}
},
"AIRSHIP_sprite0001":
{
	"frame": {"x":529,"y":0,"w":529,"h":460},
	"rotated": false,
	"trimmed": true,
	"spriteSourceSize": {"x":0,"y":4,"w":529,"h":464},
	"sourceSize": {"w":529,"h":464}
},
"AIRSHIP_sprite0002":
{
	"frame": {"x":1058,"y":0,"w":529,"h":461},
	"rotated": false,
	"trimmed": true,
	"spriteSourceSize": {"x":0,"y":3,"w":529,"h":464},
	"sourceSize": {"w":529,"h":464}
},
"AIRSHIP_sprite0003":
{
	"frame": {"x":0,"y":461,"w":529,"h":461},
	"rotated": false,
	"trimmed": true,
	"spriteSourceSize": {"x":0,"y":2,"w":529,"h":464},
	"sourceSize": {"w":529,"h":464}
},
"AIRSHIP_sprite0004":
{
	"frame": {"x":529,"y":461,"w":528,"h":462},
	"rotated": false,
	"trimmed": true,
	"spriteSourceSize": {"x":1,"y":1,"w":529,"h":464},
	"sourceSize": {"w":529,"h":464}
},
"AIRSHIP_sprite0005":
{
	"frame": {"x":1057,"y":461,"w":528,"h":462},
	"rotated": false,
	"trimmed": true,
	"spriteSourceSize": {"x":1,"y":0,"w":529,"h":464},
	"sourceSize": {"w":529,"h":464}
},
"AIRSHIP_sprite0006":
{
	"frame": {"x":0,"y":923,"w":528,"h":462},
	"rotated": false,
	"trimmed": true,
	"spriteSourceSize": {"x":1,"y":1,"w":529,"h":464},
	"sourceSize": {"w":529,"h":464}
},
"AIRSHIP_sprite0007":
{
	"frame": {"x":528,"y":923,"w":529,"h":461},
	"rotated": false,
	"trimmed": true,
	"spriteSourceSize": {"x":0,"y":2,"w":529,"h":464},
	"sourceSize": {"w":529,"h":464}
},
"AIRSHIP_sprite0008":
{
	"frame": {"x":1057,"y":923,"w":529,"h":461},
	"rotated": false,
	"trimmed": true,
	"spriteSourceSize": {"x":0,"y":3,"w":529,"h":464},
	"sourceSize": {"w":529,"h":464}
},
"AIRSHIP_sprite0009":
{
	"frame": {"x":0,"y":1385,"w":529,"h":460},
	"rotated": false,
	"trimmed": true,
	"spriteSourceSize": {"x":0,"y":4,"w":529,"h":464},
	"sourceSize": {"w":529,"h":464}
},
"AIRSHIP_sprite0010":
{
	"frame": {"x":529,"y":1385,"w":529,"h":460},
	"rotated": false,
	"trimmed": true,
	"spriteSourceSize": {"x":0,"y":4,"w":529,"h":464},
	"sourceSize": {"w":529,"h":464}
}},
"meta": {
	"app": "Adobe Flash Professional",
	"version": "13.1.0.217",
	"image": "airship.png",
	"format": "RGBA8888",
	"size": {"w":2048,"h":2048},
	"scale": "1"
}
}
